<?xml version="1.0" encoding="UTF-8"?>
<svg width="1920px" height="752px" viewBox="0 0 1920 752" version="1.1" xmlns="http://www.w3.org/2000/svg" xmlns:xlink="http://www.w3.org/1999/xlink">
    <!-- Generator: Sketch 62 (91390) - https://sketch.com -->
    <title>PatternBg@1.5x</title>
    <desc>Created with Sketch.</desc>
    <defs>
        <polygon id="path-1" points="1.13686838e-13 0 1920 0 1920 744 1.13686838e-13 744"></polygon>
        <filter x="-0.4%" y="-0.7%" width="100.7%" height="101.9%" filterUnits="objectBoundingBox" id="filter-3">
            <feOffset dx="0" dy="2" in="SourceAlpha" result="shadowOffsetOuter1"></feOffset>
            <feGaussianBlur stdDeviation="2" in="shadowOffsetOuter1" result="shadowBlurOuter1"></feGaussianBlur>
            <feColorMatrix values="0 0 0 0 0   0 0 0 0 0   0 0 0 0 0  0 0 0 0.5 0" type="matrix" in="shadowBlurOuter1"></feColorMatrix>
        </filter>
    </defs>
    <g id="1---Marketplace" stroke="none" stroke-width="1" fill="none" fill-rule="evenodd">
        <g id="1---App-Store-Home-Page" transform="translate(0.000000, -5.000000)">
            <g id="Hero-Image" transform="translate(0.000000, 7.000000)">
                <g id="PatternBg">
                    <mask id="mask-2" fill="white">
                        <use xlink:href="#path-1"></use>
                    </mask>
                    <g id="Mask" fill-rule="nonzero">
                        <use fill="black" fill-opacity="1" filter="url(#filter-3)" xlink:href="#path-1"></use>
                        <use fill="#F4F7FC" xlink:href="#path-1"></use>
                    </g>
                    <g id="Abstract-Bg" opacity="0.5" mask="url(#mask-2)">
                        <g transform="translate(0.000000, 12.000000)">
                            <path d="M317.998234,175.265242 C318.092137,179.960399 314.429915,183.810428 309.734758,183.998234 C305.039601,184.092137 301.189572,180.429915 301.001766,175.734758 C300.907863,171.039601 304.570085,167.189572 309.265242,167.001766 C314.054302,166.907863 317.904331,170.570085 317.998234,175.265242 Z" id="Path" fill="#FFFFFF"></path>
                            <g id="Group" stroke-width="1" fill="none" transform="translate(462.000000, 12.000000)">
                                <line x1="17.4110429" y1="0.305357143" x2="130.481595" y2="113.898214" id="Path" stroke="#FFFFFF"></line>
                                <line x1="0.404907975" y1="0.305357143" x2="113.374233" y2="113.898214" id="Path" stroke="#FFFFFF"></line>
                                <line x1="34.5184049" y1="0.305357143" x2="147.48773" y2="113.898214" id="Path" stroke="#FFFFFF"></line>
                                <line x1="51.5245399" y1="0.305357143" x2="164.595092" y2="113.898214" id="Path" stroke="#FFFFFF"></line>
                            </g>
                            <g id="Group" stroke-width="1" fill="none" transform="translate(11.000000, 600.000000)">
                                <line x1="17.9165117" y1="0.305357143" x2="130.881637" y2="114" id="Path" stroke="#FFFFFF"></line>
                                <line x1="0.809785842" y1="0.305357143" x2="113.876134" y2="114" id="Path" stroke="#FFFFFF"></line>
                                <line x1="34.9220144" y1="0.305357143" x2="147.988363" y2="114" id="Path" stroke="#FFFFFF"></line>
                                <line x1="52.0287403" y1="0.305357143" x2="164.993865" y2="114" id="Path" stroke="#FFFFFF"></line>
                            </g>
                            <g id="Group" opacity="0.5" stroke-width="1" fill="none" transform="translate(252.000000, 179.000000)">
                                <path d="M13.247619,19.26 C10.5980952,22.4190476 8.35619048,25.8838095 6.52190476,29.4504762 L29.8580952,6.11428571 C23.7438095,9.17142857 18.0371429,13.5533333 13.247619,19.26 Z" id="Path" fill="#B6D2FC"></path>
                                <path d="M43.7171429,1.42666667 L1.73238095,43.4114286 C1.22285714,46.1628571 0.917142857,49.0161905 0.815238095,51.767619 L52.0733333,0.50952381 C49.3219048,0.50952381 46.4685714,0.815238095 43.7171429,1.42666667 Z" id="Path" fill="#B6D2FC"></path>
                                <path d="M60.8371429,0.917142857 L1.3247619,60.4295238 C1.63047619,62.5695238 2.03809524,64.607619 2.54761905,66.6457143 L67.0533333,2.14 C65.0152381,1.63047619 62.9771429,1.22285714 60.8371429,0.917142857 Z" id="Path" fill="#B6D2FC"></path>
                                <path d="M73.9828571,4.38190476 L4.89142857,73.4733333 C5.6047619,75.2057143 6.42,76.9380952 7.33714286,78.5685714 L79.0780952,6.82761905 C77.3457143,5.91047619 75.6133333,5.0952381 73.9828571,4.38190476 Z" id="Path" fill="#B6D2FC"></path>
                                <path d="M87.8419048,12.84 C86.8228571,11.9228571 85.7019048,11.107619 84.6828571,10.3942857 L10.9038095,84.1733333 C11.9228571,85.6 13.0438095,87.0266667 14.2666667,88.3514286 L88.9628571,13.6552381 C88.4533333,13.4514286 88.147619,13.1457143 87.8419048,12.84 Z" id="Path" fill="#B6D2FC"></path>
                                <path d="M19.667619,93.752381 C20.6866667,94.6695238 21.807619,95.4847619 22.8266667,96.1980952 L96.6057143,22.4190476 C95.5866667,20.992381 94.4657143,19.5657143 93.2428571,18.2409524 L18.5466667,92.9371429 C18.9542857,93.2428571 19.3619048,93.4466667 19.667619,93.752381 Z" id="Path" fill="#B6D2FC"></path>
                                <path d="M33.5266667,102.210476 L102.618095,33.1190476 C101.904762,31.3866667 101.089524,29.6542857 100.172381,28.0238095 L28.4314286,99.7647619 C30.0619048,100.681905 31.7942857,101.497143 33.5266667,102.210476 Z" id="Path" fill="#B6D2FC"></path>
                                <path d="M46.5704762,105.675238 L106.082857,46.1628571 C105.777143,44.0228571 105.369524,41.9847619 104.86,39.9466667 L40.3542857,104.452381 C42.392381,105.06381 44.532381,105.471429 46.5704762,105.675238 Z" id="Path" fill="#B6D2FC"></path>
                                <path d="M63.6904762,105.267619 L105.675238,63.2828571 C106.184762,60.5314286 106.490476,57.6780952 106.592381,54.9266667 L55.3342857,106.184762 C58.0857143,106.082857 60.9390476,105.777143 63.6904762,105.267619 Z" id="Path" fill="#B6D2FC"></path>
                                <path d="M94.16,87.4342857 C96.8095238,84.2752381 99.0514286,80.8104762 100.885714,77.2438095 L77.5495238,100.58 C83.7657143,97.4209524 89.472381,93.0390476 94.16,87.4342857 Z" id="Path" fill="#B6D2FC"></path>
                            </g>
                            <g id="Group" opacity="0.5" stroke-width="1" fill="none" transform="translate(2.000000, 410.000000)">
                                <g transform="translate(68.338743, 0.000000)" fill="#537CFD" id="Path">
                                    <path d="M6.23088538,6.335 C4.92440941,7.64222222 2.81394824,7.64222222 1.60797042,6.335 C0.301494454,5.02777778 0.301494454,2.91611111 1.60797042,1.70944444 C2.91444639,0.402222222 5.02490756,0.402222222 6.23088538,1.70944444 C7.53736135,2.91611111 7.53736135,5.02777778 6.23088538,6.335 Z"></path>
                                    <path d="M26.9335045,27.0494444 C25.6270286,28.3566667 23.5165674,28.3566667 22.3105896,27.0494444 C21.0041136,25.7422222 21.0041136,23.6305556 22.3105896,22.4238889 C23.6170656,21.1166667 25.7275267,21.1166667 26.9335045,22.4238889 C28.2399805,23.6305556 28.2399805,25.7422222 26.9335045,27.0494444 Z"></path>
                                    <path d="M47.7366219,47.8644444 C46.4301459,49.1716667 44.3196847,49.1716667 43.1137069,47.8644444 C41.8072309,46.5572222 41.8072309,44.4455556 43.1137069,43.2388889 C44.4201829,41.9316667 46.5306441,41.9316667 47.7366219,43.2388889 C49.0430978,44.4455556 49.0430978,46.5572222 47.7366219,47.8644444 Z"></path>
                                    <path d="M68.5397392,68.5788889 C67.2332632,69.8861111 65.122802,69.8861111 63.9168242,68.5788889 C62.6103483,67.2716667 62.6103483,65.16 63.9168242,63.9533333 C65.2233002,62.6461111 67.3337614,62.6461111 68.5397392,63.9533333 C69.8462152,65.2605556 69.8462152,67.2716667 68.5397392,68.5788889 Z"></path>
                                    <path d="M89.2423584,89.3938889 C87.9358824,90.7011111 85.8254212,90.7011111 84.6194434,89.3938889 C83.3129674,88.0866667 83.3129674,85.975 84.6194434,84.7683333 C85.9259194,83.4611111 88.0363805,83.4611111 89.2423584,84.7683333 C90.5488343,85.975 90.5488343,88.0866667 89.2423584,89.3938889 Z"></path>
                                    <path d="M110.045476,110.208889 C108.739,111.516111 106.628539,111.516111 105.422561,110.208889 C104.116085,108.901667 104.116085,106.79 105.422561,105.583333 C106.729037,104.276111 108.839498,104.276111 110.045476,105.583333 C111.351952,106.79 111.351952,108.901667 110.045476,110.208889 Z"></path>
                                </g>
                                <g transform="translate(45.224168, 23.127778)" fill="#537CFD" id="Path">
                                    <path d="M6.33138353,6.13388889 C5.02490756,7.44111111 2.91444639,7.44111111 1.70846857,6.13388889 C0.401992605,4.82666667 0.401992605,2.715 1.70846857,1.50833333 C3.01494454,0.201111111 5.12540572,0.201111111 6.33138353,1.50833333 C7.6378595,2.715 7.6378595,4.82666667 6.33138353,6.13388889 Z"></path>
                                    <path d="M27.1345009,26.9488889 C25.8280249,28.2561111 23.7175637,28.2561111 22.5115859,26.9488889 C21.2051099,25.6416667 21.2051099,23.53 22.5115859,22.3233333 C23.8180619,21.0161111 25.928523,21.0161111 27.1345009,22.3233333 C28.4409768,23.53 28.4409768,25.6416667 27.1345009,26.9488889 Z"></path>
                                    <path d="M47.83712,47.6633333 C46.5306441,48.9705556 44.4201829,48.9705556 43.2142051,47.6633333 C41.9077291,46.3561111 41.9077291,44.2444444 43.2142051,43.0377778 C44.520681,41.7305556 46.6311422,41.7305556 47.83712,43.0377778 C49.143596,44.345 49.143596,46.3561111 47.83712,47.6633333 Z"></path>
                                    <path d="M68.6402373,68.4783333 C67.3337614,69.7855556 65.2233002,69.7855556 64.0173224,68.4783333 C62.7108464,67.1711111 62.7108464,65.0594444 64.0173224,63.8527778 C65.3237983,62.5455556 67.4342595,62.5455556 68.6402373,63.8527778 C69.9467133,65.0594444 69.9467133,67.1711111 68.6402373,68.4783333 Z"></path>
                                    <path d="M89.4433547,89.2933333 C88.1368787,90.6005556 86.0264175,90.6005556 84.8204397,89.2933333 C83.5139637,87.9861111 83.5139637,85.8744444 84.8204397,84.6677778 C86.1269157,83.3605556 88.2373768,83.3605556 89.4433547,84.6677778 C90.7498306,85.8744444 90.7498306,87.9861111 89.4433547,89.2933333 Z"></path>
                                    <path d="M110.145974,110.007778 C108.839498,111.315 106.729037,111.315 105.523059,110.007778 C104.216583,108.700556 104.216583,106.588889 105.523059,105.382222 C106.829535,104.075 108.939996,104.075 110.145974,105.382222 C111.45245,106.588889 111.45245,108.700556 110.145974,110.007778 Z"></path>
                                </g>
                                <g transform="translate(23.000682, 46.255556)" fill="#537CFD" id="Path">
                                    <path d="M5.64129073,6.03333333 C4.33481476,7.34055556 2.22435358,7.34055556 1.01837577,6.03333333 C-0.288100201,4.72611111 -0.288100201,2.61444444 1.01837577,1.40777778 C2.32485173,0.100555556 4.43531291,0.100555556 5.64129073,1.40777778 C6.94776669,2.61444444 6.94776669,4.72611111 5.64129073,6.03333333 Z"></path>
                                    <path d="M26.3439099,26.7477778 C25.0374339,28.055 22.9269727,28.055 21.7209949,26.7477778 C20.414519,25.4405556 20.414519,23.3288889 21.7209949,22.1222222 C23.0274709,20.815 25.1379321,20.815 26.3439099,22.1222222 C27.6503859,23.4294444 27.6503859,25.4405556 26.3439099,26.7477778 Z"></path>
                                    <path d="M47.1470272,47.5627778 C45.8405512,48.87 43.7300901,48.87 42.5241123,47.5627778 C41.2176363,46.2555556 41.2176363,44.1438889 42.5241123,42.9372222 C43.8305882,41.63 45.9410494,41.63 47.1470272,42.9372222 C48.4535032,44.1438889 48.4535032,46.2555556 47.1470272,47.5627778 Z"></path>
                                    <path d="M67.9501445,68.3777778 C66.6436686,69.685 64.5332074,69.685 63.3272296,68.3777778 C62.0207536,67.0705556 62.0207536,64.9588889 63.3272296,63.7522222 C64.6337055,62.445 66.7441667,62.445 67.9501445,63.7522222 C69.1561223,64.9588889 69.1561223,67.0705556 67.9501445,68.3777778 Z"></path>
                                    <path d="M88.6527637,89.0922222 C87.3462877,90.3994444 85.2358266,90.3994444 84.0298487,89.0922222 C82.7233728,87.785 82.7233728,85.6733333 84.0298487,84.4666667 C85.3363247,83.1594444 87.4467859,83.1594444 88.6527637,84.4666667 C89.9592397,85.6733333 89.9592397,87.785 88.6527637,89.0922222 Z"></path>
                                    <path d="M109.455881,109.907222 C108.149405,111.214444 106.038944,111.214444 104.832966,109.907222 C103.52649,108.6 103.52649,106.488333 104.832966,105.281667 C106.139442,103.974444 108.249903,103.974444 109.455881,105.281667 C110.762357,106.488333 110.762357,108.6 109.455881,109.907222 Z"></path>
                                </g>
                                <g transform="translate(0.000000, 69.383333)" fill="#537CFD" id="Path">
                                    <path d="M5.62789647,5.83222222 C4.32142051,7.13944444 2.21095933,7.13944444 1.00498151,5.83222222 C-0.301494454,4.525 -0.301494454,2.41333333 1.00498151,1.20666667 C2.31145748,-0.100555556 4.42191866,-0.100555556 5.62789647,1.20666667 C6.93437244,2.51388889 6.93437244,4.525 5.62789647,5.83222222 Z"></path>
                                    <path d="M26.4310138,26.6472222 C25.1245378,27.9544444 23.0140766,27.9544444 21.8080988,26.6472222 C20.5016229,25.34 20.5016229,23.2283333 21.8080988,22.0216667 C23.1145748,20.7144444 25.225036,20.7144444 26.4310138,22.0216667 C27.7374898,23.2283333 27.7374898,25.34 26.4310138,26.6472222 Z"></path>
                                    <path d="M47.133633,47.3616667 C45.827157,48.6688889 43.7166958,48.6688889 42.510718,47.3616667 C41.204242,46.0544444 41.204242,43.9427778 42.510718,42.7361111 C43.817194,41.4288889 45.9276551,41.4288889 47.133633,42.7361111 C48.4401089,44.0433333 48.4401089,46.155 47.133633,47.3616667 Z"></path>
                                    <path d="M67.9367503,68.1766667 C66.6302743,69.4838889 64.5198131,69.4838889 63.3138353,68.1766667 C62.0073594,66.8694444 62.0073594,64.7577778 63.3138353,63.5511111 C64.6203113,62.2438889 66.7307725,62.2438889 67.9367503,63.5511111 C69.2432262,64.7577778 69.2432262,66.8694444 67.9367503,68.1766667 Z"></path>
                                    <path d="M88.6393694,88.9916667 C87.3328935,90.2988889 85.2224323,90.2988889 84.0164545,88.9916667 C82.7099785,87.6844444 82.7099785,85.5727778 84.0164545,84.3661111 C85.3229305,83.0588889 87.4333916,83.0588889 88.6393694,84.3661111 C89.9458454,85.5727778 89.9458454,87.6844444 88.6393694,88.9916667 Z"></path>
                                    <path d="M109.442487,109.706111 C108.136011,111.013333 106.02555,111.013333 104.819572,109.706111 C103.513096,108.398889 103.513096,106.287222 104.819572,105.080556 C106.126048,103.773333 108.236509,103.773333 109.442487,105.080556 C110.748963,106.387778 110.748963,108.398889 109.442487,109.706111 Z"></path>
                                </g>
                            </g>
                            <g id="Group" opacity="0.5" stroke-width="1" fill="none" transform="translate(278.000000, 570.000000)">
                                <g fill="#537CFD" id="Path">
                                    <path d="M4.46074836,83.1243344 C5.47455481,84.1380458 5.47455481,85.759984 4.46074836,86.7736954 C3.44694192,87.7874068 1.8248516,87.7874068 0.811045157,86.7736954 C-0.202761289,85.759984 -0.202761289,84.1380458 0.811045157,83.1243344 C1.72347096,82.110623 3.44694192,82.110623 4.46074836,83.1243344 Z"></path>
                                    <path d="M20.6816515,66.8035809 C21.6954579,67.8172923 21.6954579,69.4392306 20.6816515,70.452942 C19.667845,71.4666534 18.0457547,71.4666534 17.0319483,70.452942 C16.0181418,69.4392306 16.0181418,67.8172923 17.0319483,66.8035809 C18.0457547,65.7898695 19.667845,65.7898695 20.6816515,66.8035809 Z"></path>
                                    <path d="M37.0039353,50.4828275 C38.0177417,51.4965389 38.0177417,53.1184771 37.0039353,54.1321885 C35.9901288,55.1458999 34.3680385,55.1458999 33.3542321,54.1321885 C32.3404256,53.1184771 32.3404256,51.4965389 33.3542321,50.4828275 C34.3680385,49.4691161 35.9901288,49.4691161 37.0039353,50.4828275 Z"></path>
                                    <path d="M53.2248384,34.2634452 C54.2386449,35.2771566 54.2386449,36.8990948 53.2248384,37.9128062 C52.211032,38.9265176 50.5889416,38.9265176 49.5751352,37.9128062 C48.5613288,36.8990948 48.5613288,35.2771566 49.5751352,34.2634452 C50.5889416,33.2497338 52.3124126,33.2497338 53.2248384,34.2634452 Z"></path>
                                    <path d="M69.5471222,17.9426917 C70.5609286,18.9564031 70.5609286,20.5783413 69.5471222,21.5920527 C68.5333157,22.6057641 66.9112254,22.6057641 65.897419,21.5920527 C64.8836125,20.5783413 64.8836125,18.9564031 65.897419,17.9426917 C66.9112254,16.9289803 68.5333157,16.9289803 69.5471222,17.9426917 Z"></path>
                                    <path d="M85.869406,1.62193823 C86.8832124,2.63564963 86.8832124,4.25758786 85.869406,5.27129926 C84.8555995,6.28501065 83.2335092,6.28501065 82.2197028,5.27129926 C81.2058963,4.25758786 81.2058963,2.63564963 82.2197028,1.62193823 C83.2335092,0.608226837 84.8555995,0.608226837 85.869406,1.62193823 Z"></path>
                                </g>
                                <g transform="translate(17.234710, 18.246805)" fill="#537CFD" id="Path">
                                    <path d="M5.17041287,82.9215921 C6.18421932,83.9353035 6.18421932,85.5572418 5.17041287,86.5709532 C4.15660643,87.5846645 2.53451611,87.5846645 1.52070967,86.5709532 C0.506903223,85.5572418 0.506903223,83.9353035 1.52070967,82.9215921 C2.53451611,81.9078807 4.15660643,81.9078807 5.17041287,82.9215921 Z"></path>
                                    <path d="M21.4926967,66.6008387 C22.5065031,67.6145501 22.5065031,69.2364883 21.4926967,70.2501997 C20.4788902,71.2639111 18.8567999,71.2639111 17.8429934,70.2501997 C16.829187,69.2364883 16.829187,67.6145501 17.8429934,66.6008387 C18.8567999,65.5871273 20.4788902,65.5871273 21.4926967,66.6008387 Z"></path>
                                    <path d="M37.8149804,50.2800852 C38.8287869,51.2937966 38.8287869,52.9157348 37.8149804,53.9294462 C36.801174,54.9431576 35.1790837,54.9431576 34.1652772,53.9294462 C33.1514708,52.9157348 33.1514708,51.2937966 34.1652772,50.2800852 C35.077703,49.2663738 36.801174,49.2663738 37.8149804,50.2800852 Z"></path>
                                    <path d="M54.0358836,34.0607029 C55.04969,35.0744143 55.04969,36.6963525 54.0358836,37.7100639 C53.0220771,38.7237753 51.3999868,38.7237753 50.3861804,37.7100639 C49.3723739,36.6963525 49.3723739,35.0744143 50.3861804,34.0607029 C51.3999868,33.0469915 53.0220771,33.0469915 54.0358836,34.0607029 Z"></path>
                                    <path d="M70.3581673,17.7399494 C71.3719738,18.7536608 71.3719738,20.375599 70.3581673,21.3893104 C69.3443609,22.4030218 67.7222706,22.4030218 66.7084641,21.3893104 C65.6946577,20.375599 65.6946577,18.7536608 66.7084641,17.7399494 C67.7222706,16.726238 69.3443609,16.726238 70.3581673,17.7399494 Z"></path>
                                    <path d="M86.6804511,1.41919595 C87.6942576,2.43290735 87.6942576,4.05484558 86.6804511,5.06855698 C85.6666447,6.08226837 84.0445544,6.08226837 83.0307479,5.06855698 C82.0169415,4.05484558 82.0169415,2.43290735 83.0307479,1.41919595 C83.9431737,0.405484558 85.6666447,0.405484558 86.6804511,1.41919595 Z"></path>
                                </g>
                                <g transform="translate(35.483226, 36.493610)" fill="#537CFD" id="Path">
                                    <path d="M4.96765158,82.6174787 C5.98145803,83.6311901 5.98145803,85.2531283 4.96765158,86.2668397 C3.95384514,87.2805511 2.33175483,87.2805511 1.31794838,86.2668397 C0.304141934,85.2531283 0.304141934,83.6311901 1.31794838,82.6174787 C2.33175483,81.6037673 3.95384514,81.6037673 4.96765158,82.6174787 Z"></path>
                                    <path d="M21.2899354,66.3980964 C22.3037418,67.4118078 22.3037418,69.033746 21.2899354,70.0474574 C20.2761289,71.0611688 18.6540386,71.0611688 17.6402322,70.0474574 C16.6264257,69.033746 16.6264257,67.4118078 17.6402322,66.3980964 C18.6540386,65.384385 20.2761289,65.384385 21.2899354,66.3980964 Z"></path>
                                    <path d="M37.5108385,50.0773429 C38.5246449,51.0910543 38.5246449,52.7129926 37.5108385,53.7267039 C36.497032,54.7404153 34.8749417,54.7404153 33.8611353,53.7267039 C32.8473288,52.7129926 32.8473288,51.0910543 33.8611353,50.0773429 C34.8749417,49.0636315 36.497032,49.0636315 37.5108385,50.0773429 Z"></path>
                                    <path d="M53.8331223,33.7565895 C54.8469287,34.7703009 54.8469287,36.3922391 53.8331223,37.4059505 C52.8193158,38.4196619 51.1972255,38.4196619 50.1834191,37.4059505 C49.1696126,36.3922391 49.1696126,34.7703009 50.1834191,33.7565895 C51.1972255,32.7428781 52.8193158,32.7428781 53.8331223,33.7565895 Z"></path>
                                    <path d="M70.155406,17.5372071 C71.1692125,18.5509185 71.1692125,20.1728568 70.155406,21.1865682 C69.1415996,22.2002796 67.5195093,22.2002796 66.5057028,21.1865682 C65.4918964,20.1728568 65.4918964,18.5509185 66.5057028,17.5372071 C67.5195093,16.5234957 69.1415996,16.5234957 70.155406,17.5372071 Z"></path>
                                    <path d="M86.3763092,1.21645367 C87.3901156,2.23016507 87.3901156,3.8521033 86.3763092,4.8658147 C85.3625027,5.87952609 83.7404124,5.87952609 82.726606,4.8658147 C81.7127995,3.8521033 81.7127995,2.23016507 82.726606,1.21645367 C83.7404124,0.202742279 85.3625027,0.202742279 86.3763092,1.21645367 Z"></path>
                                </g>
                                <g transform="translate(53.731742, 54.740415)" fill="#537CFD" id="Path">
                                    <path d="M4.7648903,82.4147364 C5.77869674,83.4284478 5.77869674,85.0503861 4.7648903,86.0640975 C3.75108385,87.0778088 2.12899354,87.0778088 1.11518709,86.0640975 C0.101380645,85.0503861 0.101380645,83.4284478 1.11518709,82.4147364 C2.12899354,81.401025 3.75108385,81.401025 4.7648903,82.4147364 Z"></path>
                                    <path d="M20.9857934,66.093983 C21.9995999,67.1076944 21.9995999,68.7296326 20.9857934,69.743344 C19.971987,70.7570554 18.3498967,70.7570554 17.3360902,69.743344 C16.3222838,68.7296326 16.3222838,67.1076944 17.3360902,66.093983 C18.3498967,65.0802716 19.971987,65.0802716 20.9857934,66.093983 Z"></path>
                                    <path d="M37.3080772,49.8746006 C38.3218837,50.888312 38.3218837,52.5102503 37.3080772,53.5239617 C36.2942708,54.5376731 34.6721804,54.5376731 33.658374,53.5239617 C32.6445676,52.5102503 32.6445676,50.888312 33.658374,49.8746006 C34.6721804,48.8608892 36.2942708,48.8608892 37.3080772,49.8746006 Z"></path>
                                    <path d="M53.630361,33.5538472 C54.6441674,34.5675586 54.6441674,36.1894968 53.630361,37.2032082 C52.6165545,38.2169196 50.9944642,38.2169196 49.9806578,37.2032082 C48.9668513,36.1894968 48.9668513,34.5675586 49.9806578,33.5538472 C50.9944642,32.5401358 52.6165545,32.5401358 53.630361,33.5538472 Z"></path>
                                    <path d="M69.8512641,17.2330937 C70.8650706,18.2468051 70.8650706,19.8687433 69.8512641,20.8824547 C68.8374577,21.8961661 67.2153674,21.8961661 66.2015609,20.8824547 C65.1877545,19.8687433 65.1877545,18.2468051 66.2015609,17.2330937 C67.2153674,16.2193823 68.8374577,16.2193823 69.8512641,17.2330937 Z"></path>
                                    <path d="M86.1735479,1.0137114 C87.1873543,2.02742279 87.1873543,3.64936102 86.1735479,4.66307242 C85.1597414,5.67678381 83.5376511,5.67678381 82.5238447,4.66307242 C81.5100382,3.64936102 81.5100382,2.02742279 82.5238447,1.0137114 C83.5376511,1.83186799e-15 85.1597414,1.83186799e-15 86.1735479,1.0137114 Z"></path>
                                </g>
                            </g>
                            <g id="Group" opacity="0.5" stroke-width="1" fill="none">
                                <g transform="translate(54.740415, 0.000000)" fill="#537CFD" id="Path">
                                    <path d="M4.56170128,4.66571429 C3.54798988,5.68 1.92605165,5.68 0.912340256,4.66571429 C-0.10137114,3.65142857 -0.10137114,2.02857143 0.912340256,1.01428571 C1.92605165,8.32667268e-16 3.54798988,8.32667268e-16 4.56170128,1.01428571 C5.57541267,2.02857143 5.57541267,3.65142857 4.56170128,4.66571429 Z"></path>
                                    <path d="M20.8824547,20.9957143 C19.8687433,22.01 18.2468051,22.01 17.2330937,20.9957143 C16.2193823,19.9814286 16.2193823,18.3585714 17.2330937,17.3442857 C18.2468051,16.33 19.8687433,16.33 20.8824547,17.3442857 C21.8961661,18.3585714 21.8961661,19.9814286 20.8824547,20.9957143 Z"></path>
                                    <path d="M37.1018371,37.2242857 C36.0881257,38.2385714 34.4661874,38.2385714 33.452476,37.2242857 C32.4387646,36.21 32.4387646,34.5871429 33.452476,33.5728571 C34.4661874,32.5585714 36.0881257,32.5585714 37.1018371,33.5728571 C38.1155485,34.5871429 38.1155485,36.21 37.1018371,37.2242857 Z"></path>
                                    <path d="M53.4225905,53.5542857 C52.4088791,54.5685714 50.7869409,54.5685714 49.7732295,53.5542857 C48.7595181,52.54 48.7595181,50.9171429 49.7732295,49.9028571 C50.7869409,48.8885714 52.4088791,48.8885714 53.4225905,49.9028571 C54.4363019,50.9171429 54.4363019,52.54 53.4225905,53.5542857 Z"></path>
                                    <path d="M69.743344,69.8842857 C68.7296326,70.8985714 67.1076944,70.8985714 66.093983,69.8842857 C65.0802716,68.87 65.0802716,67.2471429 66.093983,66.2328571 C67.1076944,65.2185714 68.7296326,65.2185714 69.743344,66.2328571 C70.7570554,67.2471429 70.7570554,68.87 69.743344,69.8842857 Z"></path>
                                    <path d="M85.9627263,86.1128571 C84.9490149,87.1271429 83.3270767,87.1271429 82.3133653,86.1128571 C81.2996539,85.0985714 81.2996539,83.4757143 82.3133653,82.4614286 C83.3270767,81.4471429 84.9490149,81.4471429 85.9627263,82.4614286 C86.9764377,83.4757143 86.9764377,85.0985714 85.9627263,86.1128571 Z"></path>
                                </g>
                                <g transform="translate(36.493610, 18.257143)" fill="#537CFD" id="Path">
                                    <path d="M4.76444356,4.46285714 C3.75073216,5.47714286 2.12879393,5.47714286 1.11508253,4.46285714 C0.10137114,3.44857143 0.10137114,1.82571429 1.11508253,0.811428571 C2.12879393,-0.202857143 3.75073216,-0.202857143 4.76444356,0.811428571 C5.77815495,1.82571429 5.77815495,3.44857143 4.76444356,4.46285714 Z"></path>
                                    <path d="M21.085197,20.6914286 C20.0714856,21.7057143 18.4495474,21.7057143 17.435836,20.6914286 C16.4221246,19.6771429 16.4221246,18.0542857 17.435836,17.04 C18.4495474,16.0257143 20.0714856,16.0257143 21.085197,17.04 C22.0989084,18.0542857 22.0989084,19.6771429 21.085197,20.6914286 Z"></path>
                                    <path d="M37.3045793,37.0214286 C36.2908679,38.0357143 34.6689297,38.0357143 33.6552183,37.0214286 C32.6415069,36.0071429 32.6415069,34.3842857 33.6552183,33.37 C34.6689297,32.3557143 36.2908679,32.3557143 37.3045793,33.37 C38.3182907,34.3842857 38.3182907,36.0071429 37.3045793,37.0214286 Z"></path>
                                    <path d="M53.6253328,53.3514286 C52.6116214,54.3657143 50.9896832,54.3657143 49.9759718,53.3514286 C48.9622604,52.3371429 48.9622604,50.7142857 49.9759718,49.7 C50.9896832,48.6857143 52.6116214,48.6857143 53.6253328,49.7 C54.6390442,50.7142857 54.6390442,52.3371429 53.6253328,53.3514286 Z"></path>
                                    <path d="M69.9460863,69.58 C68.9323749,70.5942857 67.3104366,70.5942857 66.2967252,69.58 C65.2830139,68.5657143 65.2830139,66.9428571 66.2967252,65.9285714 C67.3104366,64.9142857 68.9323749,64.9142857 69.9460863,65.9285714 C70.9597977,66.9428571 70.9597977,68.5657143 69.9460863,69.58 Z"></path>
                                    <path d="M86.1654686,85.91 C85.1517572,86.9242857 83.529819,86.9242857 82.5161076,85.91 C81.5023962,84.8957143 81.5023962,83.2728571 82.5161076,82.2585714 C83.529819,81.2442857 85.1517572,81.2442857 86.1654686,82.2585714 C87.17918,83.2728571 87.17918,84.8957143 86.1654686,85.91 Z"></path>
                                </g>
                                <g transform="translate(18.246805, 35.500000)" fill="#537CFD" id="Path">
                                    <path d="M4.96718584,5.27428571 C3.95347444,6.28857143 2.33153621,6.28857143 1.31782481,5.27428571 C0.304113419,4.26 0.304113419,2.63714286 1.31782481,1.62285714 C2.33153621,0.608571429 3.95347444,0.608571429 4.96718584,1.62285714 C5.98089723,2.53571429 5.98089723,4.26 4.96718584,5.27428571 Z"></path>
                                    <path d="M21.2879393,21.5028571 C20.2742279,22.5171429 18.6522897,22.5171429 17.6385783,21.5028571 C16.6248669,20.4885714 16.6248669,18.8657143 17.6385783,17.8514286 C18.6522897,16.8371429 20.2742279,16.8371429 21.2879393,17.8514286 C22.3016507,18.8657143 22.3016507,20.4885714 21.2879393,21.5028571 Z"></path>
                                    <path d="M37.6086928,37.8328571 C36.5949814,38.8471429 34.9730431,38.8471429 33.9593317,37.8328571 C32.9456203,36.8185714 32.9456203,35.1957143 33.9593317,34.1814286 C34.9730431,33.1671429 36.5949814,33.1671429 37.6086928,34.1814286 C38.6224042,35.1957143 38.6224042,36.8185714 37.6086928,37.8328571 Z"></path>
                                    <path d="M53.8280751,54.1628571 C52.8143637,55.1771429 51.1924255,55.1771429 50.1787141,54.1628571 C49.1650027,53.1485714 49.1650027,51.5257143 50.1787141,50.5114286 C51.1924255,49.4971429 52.8143637,49.4971429 53.8280751,50.5114286 C54.8417865,51.4242857 54.8417865,53.1485714 53.8280751,54.1628571 Z"></path>
                                    <path d="M70.1488285,70.3914286 C69.1351172,71.4057143 67.5131789,71.4057143 66.4994675,70.3914286 C65.4857561,69.3771429 65.4857561,67.7542857 66.4994675,66.74 C67.5131789,65.7257143 69.1351172,65.7257143 70.1488285,66.74 C71.1625399,67.7542857 71.1625399,69.3771429 70.1488285,70.3914286 Z"></path>
                                    <path d="M86.469582,86.7214286 C85.4558706,87.7357143 83.8339324,87.7357143 82.820221,86.7214286 C81.8065096,85.7071429 81.8065096,84.0842857 82.820221,83.07 C83.8339324,82.0557143 85.4558706,82.0557143 86.469582,83.07 C87.4832934,84.0842857 87.4832934,85.7071429 86.469582,86.7214286 Z"></path>
                                </g>
                                <g transform="translate(0.000000, 53.757143)" fill="#537CFD" id="Path">
                                    <path d="M5.27129926,4.97 C4.25758786,5.98428571 2.63564963,5.98428571 1.62193823,4.97 C0.608226837,3.95571429 0.608226837,2.33285714 1.62193823,1.31857143 C2.63564963,0.304285714 4.25758786,0.304285714 5.27129926,1.31857143 C6.28501065,2.33285714 6.28501065,3.95571429 5.27129926,4.97 Z"></path>
                                    <path d="M21.4906816,21.3 C20.4769702,22.3142857 18.855032,22.3142857 17.8413206,21.3 C16.8276092,20.2857143 16.8276092,18.6628571 17.8413206,17.6485714 C18.855032,16.6342857 20.4769702,16.6342857 21.4906816,17.6485714 C22.504393,18.6628571 22.504393,20.2857143 21.4906816,21.3 Z"></path>
                                    <path d="M37.811435,37.63 C36.7977236,38.6442857 35.1757854,38.6442857 34.162074,37.63 C33.1483626,36.6157143 33.1483626,34.9928571 34.162074,33.9785714 C35.1757854,32.9642857 36.7977236,32.9642857 37.811435,33.9785714 C38.8251464,34.8914286 38.8251464,36.6157143 37.811435,37.63 Z"></path>
                                    <path d="M54.1321885,53.8585714 C53.1184771,54.8728571 51.4965389,54.8728571 50.4828275,53.8585714 C49.4691161,52.8442857 49.4691161,51.2214286 50.4828275,50.2071429 C51.4965389,49.1928571 53.1184771,49.1928571 54.1321885,50.2071429 C55.1458999,51.2214286 55.1458999,52.8442857 54.1321885,53.8585714 Z"></path>
                                    <path d="M70.3515708,70.1885714 C69.3378594,71.2028571 67.7159212,71.2028571 66.7022098,70.1885714 C65.6884984,69.1742857 65.6884984,67.5514286 66.7022098,66.5371429 C67.7159212,65.5228571 69.3378594,65.5228571 70.3515708,66.5371429 C71.3652822,67.5514286 71.3652822,69.1742857 70.3515708,70.1885714 Z"></path>
                                    <path d="M86.6723243,86.5185714 C85.6586129,87.5328571 84.0366747,87.5328571 83.0229633,86.5185714 C82.0092519,85.5042857 82.0092519,83.8814286 83.0229633,82.8671429 C84.0366747,81.8528571 85.6586129,81.8528571 86.6723243,82.8671429 C87.6860357,83.78 87.6860357,85.5042857 86.6723243,86.5185714 Z"></path>
                                </g>
                            </g>
                            <polygon id="Rectangle" fill="#537CFD" opacity="0.25" transform="translate(163.500000, 190.500000) rotate(-45.000000) translate(-163.500000, -190.500000) " points="97.0060701 124.00607 230 124 229.99393 256.99393 97 257"></polygon>
                            <polygon id="Rectangle" fill="#537CFD" opacity="0.25" transform="translate(112.500000, 615.500000) rotate(-45.000000) translate(-112.500000, -615.500000) " points="69.0039707 572.003971 156 572 155.996029 658.996029 69 659"></polygon>
                            <g id="Group" stroke-width="1" fill="none" transform="translate(68.000000, 104.000000)">
                                <line x1="0" y1="220.793902" x2="170.69645" y2="51.3077236" id="Path" stroke="#FFFFFF"></line>
                                <line x1="0" y1="246.297154" x2="170.69645" y2="76.9113821" id="Path" stroke="#FFFFFF"></line>
                                <line x1="0" y1="195.190244" x2="170.69645" y2="25.704065" id="Path" stroke="#FFFFFF"></line>
                                <line x1="0" y1="169.586585" x2="170.69645" y2="0.200813008" id="Path" stroke="#FFFFFF"></line>
                            </g>
                            <polygon id="Path" fill="#537CFD" opacity="0.25" points="328 487.649776 298.5506 504.324888 269 521 269.101201 487.450075 269.202401 454 298.651801 470.774963"></polygon>
                            <path d="M556.985342,92.4417379 C557.588765,115.373042 539.486071,134.381886 516.555991,134.985342 C493.62591,135.588797 474.618081,117.485136 474.014658,94.5538317 C473.411235,71.6225276 491.513929,52.6136834 514.444009,52.010228 C537.37409,51.5073485 556.381919,69.6110097 556.985342,92.4417379 Z" id="Path" fill="#537CFD" opacity="0.25"></path>
                            <g id="Group" opacity="0.5" stroke-width="1" fill="none" transform="translate(209.000000, 474.000000)">
                                <path d="M13.4220183,19.2752294 C10.5963303,22.6055046 8.27522936,26.1376147 6.4587156,29.7706422 L30.6788991,5.75229358 C24.2201835,8.98165138 18.3669725,13.5229358 13.4220183,19.2752294 Z" id="Path" fill="#B6D2FC"></path>
                                <path d="M45.0091743,1.00917431 L1.51376147,44.2018349 C0.908256881,47.0275229 0.605504587,49.9541284 0.504587156,52.8807339 L53.587156,0.100917431 C50.7614679,0.100917431 47.8348624,0.403669725 45.0091743,1.00917431 Z" id="Path" fill="#B6D2FC"></path>
                                <path d="M62.6697248,0.504587156 L1.00917431,61.8623853 C1.31192661,63.9816514 1.71559633,66.2018349 2.32110092,68.3211009 L69.1284404,1.91743119 C66.9082569,1.21100917 64.7889908,0.80733945 62.6697248,0.504587156 Z" id="Path" fill="#B6D2FC"></path>
                                <path d="M76.0917431,4.23853211 L4.5412844,75.3853211 C5.24770642,77.2018349 6.05504587,78.9174312 7.06422018,80.6330275 L81.3394495,6.76146789 C79.6238532,5.75229358 77.9082569,4.94495413 76.0917431,4.23853211 Z" id="Path" fill="#B6D2FC"></path>
                                <path d="M90.4220183,12.9174312 C89.3119266,12.0091743 88.2018349,11.2018349 87.0917431,10.3944954 L10.5963303,86.3853211 C11.6055046,87.8990826 12.8165138,89.3119266 14.0275229,90.7247706 L91.3302752,13.8256881 C91.1284404,13.5229358 90.8256881,13.2201835 90.4220183,12.9174312 Z" id="Path" fill="#B6D2FC"></path>
                                <path d="M19.7798165,96.2752294 C20.8899083,97.1834862 22,97.9908257 23.1100917,98.8990826 L99.6055046,22.9082569 C98.5963303,21.3944954 97.3853211,19.9816514 96.1743119,18.5688073 L18.8715596,95.4678899 C19.1743119,95.6697248 19.4770642,95.9724771 19.7798165,96.2752294 Z" id="Path" fill="#B6D2FC"></path>
                                <path d="M34.1100917,105.055046 L105.66055,33.9082569 C104.954128,32.0917431 104.146789,30.3761468 103.137615,28.6605505 L28.8623853,102.53211 C30.5779817,103.440367 32.293578,104.348624 34.1100917,105.055046 Z" id="Path" fill="#B6D2FC"></path>
                                <path d="M47.6330275,108.688073 L109.293578,47.4311927 C108.990826,45.3119266 108.587156,43.0917431 107.981651,40.9724771 L41.1743119,107.376147 C43.293578,107.981651 45.412844,108.385321 47.6330275,108.688073 Z" id="Path" fill="#B6D2FC"></path>
                                <path d="M65.293578,108.284404 L108.788991,65.0917431 C109.394495,62.266055 109.697248,59.3394495 109.798165,56.412844 L56.7155963,109.192661 C59.5412844,109.192661 62.3669725,108.788991 65.293578,108.284404 Z" id="Path" fill="#B6D2FC"></path>
                                <path d="M96.7798165,89.9174312 C99.6055046,86.587156 101.926606,83.0550459 103.743119,79.4220183 L79.5229358,103.440367 C85.9816514,100.311927 91.8348624,95.7706422 96.7798165,89.9174312 Z" id="Path" fill="#B6D2FC"></path>
                            </g>
                            <g id="Group" stroke-width="1" fill="none" transform="translate(364.000000, 344.000000)">
                                <line x1="0.506578947" y1="198.185455" x2="153.392105" y2="46.0145455" id="Path" stroke="#FFFFFF"></line>
                                <line x1="0.506578947" y1="221.192727" x2="153.392105" y2="68.9209091" id="Path" stroke="#FFFFFF"></line>
                                <line x1="0.506578947" y1="175.279091" x2="153.392105" y2="23.0072727" id="Path" stroke="#FFFFFF"></line>
                                <line x1="0.506578947" y1="152.271818" x2="153.392105" y2="0" id="Path" stroke="#FFFFFF"></line>
                            </g>
                            <g id="Group" stroke-width="1" fill="none" transform="translate(397.000000, 162.000000)">
                                <line x1="0.101324503" y1="198.69" x2="153" y2="46.5190909" id="Path" stroke="#FFFFFF"></line>
                                <line x1="0.101324503" y1="221.697273" x2="153" y2="69.5263636" id="Path" stroke="#FFFFFF"></line>
                                <line x1="0.101324503" y1="175.783636" x2="153" y2="23.5118182" id="Path" stroke="#FFFFFF"></line>
                                <line x1="0.101324503" y1="152.776364" x2="153" y2="0.605454545" id="Path" stroke="#FFFFFF"></line>
                            </g>
                            <polygon id="Path" fill="#537CFD" opacity="0.25" points="412.5 289 393.699732 256.550232 375 224 412.5 224 450 224 431.300268 256.550232"></polygon>
                            <polygon id="Path" fill="#537CFD" opacity="0.25" points="239.449213 663 257.224607 693.449587 275 724 239.449213 724 204 724 221.775393 693.449587"></polygon>
                            <polygon id="Path" fill="#FFFFFF" points="69.5 297 87.1991404 327.449587 105 358 69.5 358 34 358 51.6991404 327.449587"></polygon>
                            <polygon id="Path" fill="#537CFD" opacity="0.25" points="658 149.549575 673.44918 140.725212 689 132 689 149.549575 689 167 673.44918 158.274788"></polygon>
                            <g id="Group" opacity="0.5" stroke-width="1" fill="none" transform="translate(241.000000, 272.000000)">
                                <g fill="#537CFD" id="Path">
                                    <path d="M5.17388396,94.4018163 C6.28659333,95.5148066 6.28659333,97.4372445 5.17388396,98.6514157 C4.06117459,99.7644061 2.13922204,99.7644061 0.925357265,98.6514157 C-0.187352107,97.5384254 -0.187352107,95.6159876 0.925357265,94.4018163 C2.13922204,93.288826 3.96001919,93.288826 5.17388396,94.4018163 Z"></path>
                                    <path d="M23.7864771,75.7845235 C24.8991865,76.8975138 24.8991865,78.8199517 23.7864771,80.0341229 C22.6737677,81.1471133 20.7518152,81.1471133 19.5379504,80.0341229 C18.425241,78.9211326 18.425241,76.9986948 19.5379504,75.7845235 C20.7518152,74.5703522 22.6737677,74.5703522 23.7864771,75.7845235 Z"></path>
                                    <path d="M42.5002256,57.0660497 C43.612935,58.1790401 43.612935,60.1014779 42.5002256,61.3156492 C41.3875163,62.4286395 39.4655637,62.4286395 38.2516989,61.3156492 C37.1389896,60.2026588 37.1389896,58.280221 38.2516989,57.0660497 C39.4655637,55.8518785 41.2863609,55.9530594 42.5002256,57.0660497 Z"></path>
                                    <path d="M61.2139742,38.347576 C62.3266835,39.4605663 62.3266835,41.3830041 61.2139742,42.5971754 C60.1012648,43.7101657 58.1793122,43.7101657 56.9654475,42.5971754 C55.8527381,41.4841851 55.8527381,39.5617472 56.9654475,38.347576 C58.1793122,37.2345856 60.0001094,37.2345856 61.2139742,38.347576 Z"></path>
                                    <path d="M79.8265673,19.7302831 C80.9392767,20.8432735 80.9392767,22.7657113 79.8265673,23.9798826 C78.7138579,25.0928729 76.7919054,25.0928729 75.5780406,23.9798826 C74.4653312,22.8668923 74.4653312,20.9444544 75.5780406,19.7302831 C76.7919054,18.5161119 78.7138579,18.5161119 79.8265673,19.7302831 Z"></path>
                                    <path d="M98.5403158,1.01180939 C99.6530252,2.12479972 99.6530252,4.04723757 98.5403158,5.26140884 C97.4276065,6.37439917 95.5056539,6.37439917 94.2917891,5.26140884 C93.1790798,4.14841851 93.1790798,2.22598066 94.2917891,1.01180939 C95.5056539,-0.101180939 97.3264511,-0.101180939 98.5403158,1.01180939 Z"></path>
                                </g>
                                <g transform="translate(20.347194, 20.236188)" fill="#537CFD" id="Path">
                                    <path d="M5.46239146,94.907721 C6.57510084,96.0207113 6.57510084,97.9431492 5.46239146,99.1573204 C4.34968209,100.270311 2.42772954,100.270311 1.21386477,99.1573204 C0.101155397,98.0443301 0.101155397,96.1218923 1.21386477,94.907721 C2.42772954,93.6935497 4.24852669,93.6935497 5.46239146,94.907721 Z"></path>
                                    <path d="M24.17614,76.1892472 C25.2888494,77.3022376 25.2888494,79.2246754 24.17614,80.4388467 C23.0634306,81.551837 21.1414781,81.551837 19.9276133,80.4388467 C18.8149039,79.3258564 18.8149039,77.4034185 19.9276133,76.1892472 C21.1414781,74.975076 22.9622752,74.975076 24.17614,76.1892472 Z"></path>
                                    <path d="M42.7887331,57.4707735 C43.9014425,58.5837638 43.9014425,60.5062017 42.7887331,61.7203729 C41.6760238,62.8333633 39.7540712,62.8333633 38.5402064,61.7203729 C37.4274971,60.6073826 37.4274971,58.6849448 38.5402064,57.4707735 C39.7540712,56.3577831 41.6760238,56.3577831 42.7887331,57.4707735 Z"></path>
                                    <path d="M61.5024817,38.8534807 C62.615191,39.966471 62.615191,41.8889088 61.5024817,43.1030801 C60.3897723,44.2160704 58.4678197,44.2160704 57.253955,43.1030801 C56.1412456,41.9900898 56.1412456,40.0676519 57.253955,38.8534807 C58.4678197,37.6393094 60.2886169,37.6393094 61.5024817,38.8534807 Z"></path>
                                    <path d="M80.2162302,20.1350069 C81.3289396,21.2479972 81.3289396,23.1704351 80.2162302,24.3846064 C79.1035208,25.4975967 77.1815683,25.4975967 75.9677035,24.3846064 C74.8549941,23.271616 74.8549941,21.3491782 75.9677035,20.1350069 C77.1815683,18.9208356 79.0023654,18.9208356 80.2162302,20.1350069 Z"></path>
                                    <path d="M98.8288233,1.41653315 C99.9415327,2.52952348 99.9415327,4.45196133 98.8288233,5.6661326 C97.716114,6.77912293 95.7941614,6.77912293 94.5802967,5.6661326 C93.4675873,4.55314227 93.4675873,2.63070442 94.5802967,1.41653315 C95.7941614,0.303542818 97.716114,0.303542818 98.8288233,1.41653315 Z"></path>
                                </g>
                                <g transform="translate(40.578273, 41.484185)" fill="#537CFD" id="Path">
                                    <path d="M5.86701305,94.3006354 C6.97972243,95.4136257 6.97972243,97.3360635 5.86701305,98.5502348 C4.75430368,99.6632251 2.83235113,99.6632251 1.61848636,98.5502348 C0.505776987,97.4372445 0.505776987,95.5148066 1.61848636,94.3006354 C2.83235113,93.0864641 4.75430368,93.0864641 5.86701305,94.3006354 Z"></path>
                                    <path d="M24.5807616,75.5821616 C25.693471,76.6951519 25.693471,78.6175898 24.5807616,79.831761 C23.4680522,80.9447514 21.5460997,80.9447514 20.3322349,79.831761 C19.2195255,78.7187707 19.2195255,76.7963329 20.3322349,75.5821616 C21.5460997,74.4691713 23.3668968,74.4691713 24.5807616,75.5821616 Z"></path>
                                    <path d="M43.2945101,56.9648688 C44.4072195,58.0778591 44.4072195,60.000297 43.2945101,61.2144682 C42.1818008,62.3274586 40.2598482,62.3274586 39.0459834,61.2144682 C37.9332741,60.1014779 37.9332741,58.1790401 39.0459834,56.9648688 C40.2598482,55.7506975 42.0806454,55.7506975 43.2945101,56.9648688 Z"></path>
                                    <path d="M61.9071033,38.246395 C63.0198126,39.3593854 63.0198126,41.2818232 61.9071033,42.4959945 C60.7943939,43.6089848 58.8724413,43.6089848 57.6585766,42.4959945 C56.5458672,41.3830041 56.5458672,39.4605663 57.6585766,38.246395 C58.8724413,37.0322238 60.7943939,37.0322238 61.9071033,38.246395 Z"></path>
                                    <path d="M80.6208518,19.5279213 C81.7335612,20.6409116 81.7335612,22.5633494 80.6208518,23.7775207 C79.5081424,24.890511 77.5861899,24.890511 76.3723251,23.7775207 C75.2596157,22.6645304 75.2596157,20.7420925 76.3723251,19.5279213 C77.5861899,18.4149309 79.406987,18.4149309 80.6208518,19.5279213 Z"></path>
                                    <path d="M99.3346003,0.910628453 C100.44731,2.02361878 100.44731,3.94605663 99.3346003,5.1602279 C98.221891,6.27321823 96.2999384,6.27321823 95.0860736,5.1602279 C93.9733643,4.04723757 93.9733643,2.12479972 95.0860736,0.910628453 C96.2999384,-0.303542818 98.1207356,-0.303542818 99.3346003,0.910628453 Z"></path>
                                </g>
                                <g transform="translate(61.820907, 61.720373)" fill="#537CFD" id="Path">
                                    <path d="M5.36123607,94.7053591 C6.47394544,95.8183494 6.47394544,97.7407873 5.36123607,98.9549586 C4.24852669,100.067949 2.32657414,100.067949 1.11270937,98.9549586 C6.66133815e-16,97.8419682 6.66133815e-16,95.9195304 1.11270937,94.7053591 C2.32657414,93.5923688 4.1473713,93.5923688 5.36123607,94.7053591 Z"></path>
                                    <path d="M23.9738292,76.0880663 C25.0865386,77.2010566 25.0865386,79.1234945 23.9738292,80.3376657 C22.8611198,81.4506561 20.9391673,81.4506561 19.7253025,80.3376657 C18.6125931,79.2246754 18.6125931,77.3022376 19.7253025,76.0880663 C20.9391673,74.873895 22.8611198,74.873895 23.9738292,76.0880663 Z"></path>
                                    <path d="M42.6875777,57.3695925 C43.8002871,58.4825829 43.8002871,60.4050207 42.6875777,61.619192 C41.5748684,62.7321823 39.6529158,62.7321823 38.439051,61.619192 C37.3263417,60.5062017 37.3263417,58.5837638 38.439051,57.3695925 C39.6529158,56.1554213 41.473713,56.1554213 42.6875777,57.3695925 Z"></path>
                                    <path d="M61.4013263,38.6511188 C62.5140356,39.7641091 62.5140356,41.686547 61.4013263,42.9007182 C60.2886169,44.0137086 58.3666644,44.0137086 57.1527996,42.9007182 C56.0400902,41.7877279 56.0400902,39.8652901 57.1527996,38.6511188 C58.265509,37.5381285 60.1874615,37.5381285 61.4013263,38.6511188 Z"></path>
                                    <path d="M80.0139194,20.033826 C81.1266288,21.1468163 81.1266288,23.0692541 80.0139194,24.2834254 C78.90121,25.3964157 76.9792575,25.3964157 75.7653927,24.2834254 C74.6526833,23.1704351 74.6526833,21.2479972 75.7653927,20.033826 C76.9792575,18.8196547 78.90121,18.8196547 80.0139194,20.033826 Z"></path>
                                    <path d="M98.7276679,1.31535221 C99.8403773,2.42834254 99.8403773,4.35078039 98.7276679,5.56495166 C97.6149586,6.67794199 95.693006,6.67794199 94.4791413,5.56495166 C93.3664319,4.45196133 93.3664319,2.52952348 94.4791413,1.31535221 C95.693006,0.101180939 97.5138032,0.101180939 98.7276679,1.31535221 Z"></path>
                                </g>
                            </g>
                            <path d="M471.990953,519.676707 C472.4026,537.06877 458.715355,551.476395 441.323293,551.990953 C423.93123,552.4026 409.523605,538.715355 409.009047,521.323293 C408.5974,503.93123 422.284645,489.523605 439.676707,489.009047 C457.06877,488.5974 471.476395,502.284645 471.990953,519.676707 Z" id="Path" fill="#FFFFFF"></path>
                            <g id="Group" stroke-width="1" fill="none" transform="translate(1658.000000, 520.000000)">
                                <line x1="0.305357143" y1="147.184049" x2="113.898214" y2="34.2147239" id="Path" stroke="#FFFFFF"></line>
                                <line x1="0.305357143" y1="164.291411" x2="113.898214" y2="51.2208589" id="Path" stroke="#FFFFFF"></line>
                                <line x1="0.305357143" y1="130.177914" x2="113.898214" y2="17.107362" id="Path" stroke="#FFFFFF"></line>
                                <line x1="0.305357143" y1="113.070552" x2="113.898214" y2="0.101226994" id="Path" stroke="#FFFFFF"></line>
                            </g>
                            <g id="Group" stroke-width="1" fill="none" transform="translate(1427.000000, 12.000000)">
                                <line x1="17.4110429" y1="0.305357143" x2="130.380368" y2="113.898214" id="Path" stroke="#FFFFFF"></line>
                                <line x1="0.303680982" y1="0.305357143" x2="113.374233" y2="113.898214" id="Path" stroke="#FFFFFF"></line>
                                <line x1="34.4171779" y1="0.305357143" x2="147.48773" y2="113.898214" id="Path" stroke="#FFFFFF"></line>
                                <line x1="51.5245399" y1="0.305357143" x2="164.493865" y2="113.898214" id="Path" stroke="#FFFFFF"></line>
                            </g>
                            <g id="Group" stroke-width="1" fill="none" transform="translate(1832.000000, 581.000000)">
                                <line x1="17.7147239" y1="0.406717302" x2="130.684049" y2="113.982524" id="Path" stroke="#FFFFFF"></line>
                                <line x1="0.607361963" y1="0.406717302" x2="113.677914" y2="113.982524" id="Path" stroke="#FFFFFF"></line>
                                <line x1="34.7208589" y1="0.406717302" x2="147.791411" y2="113.982524" id="Path" stroke="#FFFFFF"></line>
                                <line x1="51.8282209" y1="0.406717302" x2="164.797546" y2="113.982524" id="Path" stroke="#FFFFFF"></line>
                            </g>
                            <path d="M1734.98142,556.992598 C1735.78667,589.302013 1710.32058,616.1762 1678.00985,616.981419 C1645.69912,617.786638 1618.82383,592.321585 1618.01858,560.01217 C1617.21333,527.702755 1642.67942,500.828568 1674.99015,500.023349 C1707.30088,499.117478 1734.17617,524.683183 1734.98142,556.992598 Z" id="Path" fill="#537CFD" opacity="0.25"></path>
                            <g id="Group" opacity="0.5" stroke-width="1" fill="none" transform="translate(1499.000000, 499.000000)">
                                <g transform="translate(69.383333, 0.000000)" fill="#537CFD" id="Path">
                                    <path d="M5.83222222,6.13407821 C4.525,7.44134078 2.41333333,7.44134078 1.20666667,6.13407821 C-0.100555556,4.82681564 -0.100555556,2.7150838 1.20666667,1.50837989 C2.51388889,0.201117318 4.62555556,0.201117318 5.83222222,1.50837989 C7.13944444,2.81564246 7.13944444,4.82681564 5.83222222,6.13407821 Z"></path>
                                    <path d="M26.6472222,26.9497207 C25.34,28.2569832 23.2283333,28.2569832 22.0216667,26.9497207 C20.7144444,25.6424581 20.7144444,23.5307263 22.0216667,22.3240223 C23.3288889,21.0167598 25.4405556,21.0167598 26.6472222,22.3240223 C27.9544444,23.5307263 27.9544444,25.6424581 26.6472222,26.9497207 Z"></path>
                                    <path d="M47.3616667,47.6648045 C46.0544444,48.972067 43.9427778,48.972067 42.7361111,47.6648045 C41.4288889,46.3575419 41.4288889,44.2458101 42.7361111,43.0391061 C44.0433333,41.7318436 46.155,41.7318436 47.3616667,43.0391061 C48.6688889,44.3463687 48.6688889,46.4581006 47.3616667,47.6648045 Z"></path>
                                    <path d="M68.1766667,68.4804469 C66.8694444,69.7877095 64.7577778,69.7877095 63.5511111,68.4804469 C62.2438889,67.1731844 62.2438889,65.0614525 63.5511111,63.8547486 C64.8583333,62.547486 66.97,62.547486 68.1766667,63.8547486 C69.4838889,65.0614525 69.4838889,67.1731844 68.1766667,68.4804469 Z"></path>
                                    <path d="M88.8911111,89.2960894 C87.5838889,90.603352 85.4722222,90.603352 84.2655556,89.2960894 C82.9583333,87.9888268 82.9583333,85.877095 84.2655556,84.6703911 C85.5727778,83.3631285 87.6844444,83.3631285 88.8911111,84.6703911 C90.1983333,85.877095 90.1983333,87.9888268 88.8911111,89.2960894 Z"></path>
                                    <path d="M109.706111,110.011173 C108.398889,111.318436 106.287222,111.318436 105.080556,110.011173 C103.773333,108.703911 103.773333,106.592179 105.080556,105.385475 C106.387778,104.078212 108.499444,104.078212 109.706111,105.385475 C111.013333,106.692737 111.013333,108.703911 109.706111,110.011173 Z"></path>
                                </g>
                                <g transform="translate(46.255556, 23.128492)" fill="#537CFD" id="Path">
                                    <path d="M6.03333333,6.03351955 C4.72611111,7.34078212 2.61444444,7.34078212 1.40777778,6.03351955 C0.100555556,4.72625698 0.100555556,2.61452514 1.40777778,1.40782123 C2.715,0.100558659 4.82666667,0.100558659 6.03333333,1.40782123 C7.24,2.61452514 7.24,4.72625698 6.03333333,6.03351955 Z"></path>
                                    <path d="M26.7477778,26.7486034 C25.4405556,28.0558659 23.3288889,28.0558659 22.1222222,26.7486034 C20.815,25.4413408 20.815,23.3296089 22.1222222,22.122905 C23.4294444,20.8156425 25.5411111,20.8156425 26.7477778,22.122905 C28.055,23.4301676 28.055,25.5418994 26.7477778,26.7486034 Z"></path>
                                    <path d="M47.5627778,47.5642458 C46.2555556,48.8715084 44.1438889,48.8715084 42.9372222,47.5642458 C41.63,46.2569832 41.63,44.1452514 42.9372222,42.9385475 C44.2444444,41.6312849 46.3561111,41.6312849 47.5627778,42.9385475 C48.87,44.1452514 48.87,46.2569832 47.5627778,47.5642458 Z"></path>
                                    <path d="M68.2772222,68.3798883 C66.97,69.6871508 64.8583333,69.6871508 63.6516667,68.3798883 C62.3444444,67.0726257 62.3444444,64.9608939 63.6516667,63.7541899 C64.9588889,62.4469274 67.0705556,62.4469274 68.2772222,63.7541899 C69.5844444,64.9608939 69.5844444,67.0726257 68.2772222,68.3798883 Z"></path>
                                    <path d="M89.0922222,89.0949721 C87.785,90.4022346 85.6733333,90.4022346 84.4666667,89.0949721 C83.1594444,87.7877095 83.1594444,85.6759777 84.4666667,84.4692737 C85.7738889,83.1620112 87.8855556,83.1620112 89.0922222,84.4692737 C90.3994444,85.7765363 90.3994444,87.7877095 89.0922222,89.0949721 Z"></path>
                                    <path d="M109.907222,109.910615 C108.6,111.217877 106.488333,111.217877 105.281667,109.910615 C103.974444,108.603352 103.974444,106.49162 105.281667,105.284916 C106.588889,103.977654 108.700556,103.977654 109.907222,105.284916 C111.113889,106.49162 111.113889,108.603352 109.907222,109.910615 Z"></path>
                                </g>
                                <g transform="translate(23.127778, 46.256983)" fill="#537CFD" id="Path">
                                    <path d="M6.13388889,5.83240223 C4.82666667,7.1396648 2.715,7.1396648 1.50833333,5.83240223 C0.201111111,4.52513966 0.201111111,2.41340782 1.50833333,1.20670391 C2.81555556,-0.100558659 4.92722222,-0.100558659 6.13388889,1.20670391 C7.44111111,2.51396648 7.44111111,4.62569832 6.13388889,5.83240223 Z"></path>
                                    <path d="M26.9488889,26.6480447 C25.6416667,27.9553073 23.53,27.9553073 22.3233333,26.6480447 C21.0161111,25.3407821 21.0161111,23.2290503 22.3233333,22.0223464 C23.6305556,20.7150838 25.7422222,20.7150838 26.9488889,22.0223464 C28.1555556,23.2290503 28.1555556,25.3407821 26.9488889,26.6480447 Z"></path>
                                    <path d="M47.6633333,47.4636872 C46.3561111,48.7709497 44.2444444,48.7709497 43.0377778,47.4636872 C41.7305556,46.1564246 41.7305556,44.0446927 43.0377778,42.8379888 C44.345,41.5307263 46.4566667,41.5307263 47.6633333,42.8379888 C48.9705556,44.0446927 48.9705556,46.1564246 47.6633333,47.4636872 Z"></path>
                                    <path d="M68.4783333,68.1787709 C67.1711111,69.4860335 65.0594444,69.4860335 63.8527778,68.1787709 C62.5455556,66.8715084 62.5455556,64.7597765 63.8527778,63.5530726 C65.16,62.2458101 67.2716667,62.2458101 68.4783333,63.5530726 C69.7855556,64.7597765 69.7855556,66.8715084 68.4783333,68.1787709 Z"></path>
                                    <path d="M89.1927778,88.9944134 C87.8855556,90.301676 85.7738889,90.301676 84.5672222,88.9944134 C83.26,87.6871508 83.26,85.575419 84.5672222,84.3687151 C85.8744444,83.0614525 87.9861111,83.0614525 89.1927778,84.3687151 C90.5,85.575419 90.5,87.6871508 89.1927778,88.9944134 Z"></path>
                                    <path d="M110.007778,109.709497 C108.700556,111.01676 106.588889,111.01676 105.382222,109.709497 C104.075,108.402235 104.075,106.290503 105.382222,105.083799 C106.689444,103.776536 108.801111,103.776536 110.007778,105.083799 C111.315,106.391061 111.315,108.402235 110.007778,109.709497 Z"></path>
                                </g>
                                <g transform="translate(0.000000, 69.385475)" fill="#537CFD" id="Path">
                                    <path d="M6.23444444,5.73184358 C4.92722222,7.03910615 2.81555556,7.03910615 1.60888889,5.73184358 C0.301666667,4.42458101 0.301666667,2.31284916 1.60888889,1.10614525 C2.91611111,-0.201117318 5.02777778,-0.201117318 6.23444444,1.10614525 C7.54166667,2.31284916 7.54166667,4.42458101 6.23444444,5.73184358 Z"></path>
                                    <path d="M27.0494444,26.547486 C25.7422222,27.8547486 23.6305556,27.8547486 22.4238889,26.547486 C21.1166667,25.2402235 21.1166667,23.1284916 22.4238889,21.9217877 C23.7311111,20.6145251 25.8427778,20.6145251 27.0494444,21.9217877 C28.3566667,23.1284916 28.3566667,25.2402235 27.0494444,26.547486 Z"></path>
                                    <path d="M47.8644444,47.2625698 C46.5572222,48.5698324 44.4455556,48.5698324 43.2388889,47.2625698 C41.9316667,45.9553073 41.9316667,43.8435754 43.2388889,42.6368715 C44.5461111,41.3296089 46.6577778,41.3296089 47.8644444,42.6368715 C49.0711111,43.8435754 49.0711111,45.9553073 47.8644444,47.2625698 Z"></path>
                                    <path d="M68.5788889,68.0782123 C67.2716667,69.3854749 65.16,69.3854749 63.9533333,68.0782123 C62.6461111,66.7709497 62.6461111,64.6592179 63.9533333,63.452514 C65.2605556,62.1452514 67.3722222,62.1452514 68.5788889,63.452514 C69.8861111,64.6592179 69.8861111,66.7709497 68.5788889,68.0782123 Z"></path>
                                    <path d="M89.3938889,88.7932961 C88.0866667,90.1005587 85.975,90.1005587 84.7683333,88.7932961 C83.4611111,87.4860335 83.4611111,85.3743017 84.7683333,84.1675978 C86.0755556,82.8603352 88.1872222,82.8603352 89.3938889,84.1675978 C90.7011111,85.4748603 90.7011111,87.4860335 89.3938889,88.7932961 Z"></path>
                                    <path d="M110.108333,109.608939 C108.801111,110.916201 106.689444,110.916201 105.482778,109.608939 C104.175556,108.301676 104.175556,106.189944 105.482778,104.98324 C106.79,103.675978 108.901667,103.675978 110.108333,104.98324 C111.415556,106.189944 111.415556,108.301676 110.108333,109.608939 Z"></path>
                                </g>
                            </g>
                            <g id="Group" opacity="0.5" stroke-width="1" fill="none" transform="translate(1777.000000, 83.000000)">
                                <g fill="#537CFD" id="Path">
                                    <path d="M5.06855698,82.2197028 C6.08226837,83.2335092 6.08226837,84.8555995 5.06855698,85.869406 C4.05484558,86.8832124 2.43290735,86.8832124 1.41919595,85.869406 C0.405484558,84.8555995 0.405484558,83.2335092 1.41919595,82.2197028 C2.43290735,81.2058963 4.05484558,81.2058963 5.06855698,82.2197028 Z"></path>
                                    <path d="M21.3893104,65.9987996 C22.4030218,67.0126061 22.4030218,68.6346964 21.3893104,69.6485028 C20.375599,70.6623093 18.7536608,70.6623093 17.7399494,69.6485028 C16.726238,68.6346964 16.726238,67.0126061 17.7399494,65.9987996 C18.7536608,64.9849932 20.375599,64.9849932 21.3893104,65.9987996 Z"></path>
                                    <path d="M37.6086928,49.6765158 C38.6224042,50.6903223 38.6224042,52.3124126 37.6086928,53.326219 C36.5949814,54.3400255 34.9730431,54.3400255 33.9593317,53.326219 C32.9456203,52.3124126 32.9456203,50.6903223 33.9593317,49.6765158 C34.9730431,48.6627094 36.5949814,48.6627094 37.6086928,49.6765158 Z"></path>
                                    <path d="M53.9294462,33.3542321 C54.9431576,34.3680385 54.9431576,35.9901288 53.9294462,37.0039353 C52.9157348,38.0177417 51.2937966,38.0177417 50.2800852,37.0039353 C49.2663738,35.9901288 49.2663738,34.3680385 50.2800852,33.3542321 C51.2937966,32.3404256 52.9157348,32.3404256 53.9294462,33.3542321 Z"></path>
                                    <path d="M70.2501997,17.1333289 C71.2639111,18.1471354 71.2639111,19.7692257 70.2501997,20.7830321 C69.2364883,21.7968386 67.6145501,21.7968386 66.6008387,20.7830321 C65.5871273,19.7692257 65.5871273,18.1471354 66.6008387,17.1333289 C67.6145501,16.1195225 69.2364883,16.1195225 70.2501997,17.1333289 Z"></path>
                                    <path d="M86.469582,0.811045157 C87.4832934,1.8248516 87.4832934,3.44694192 86.469582,4.46074836 C85.4558706,5.47455481 83.8339324,5.47455481 82.820221,4.46074836 C81.8065096,3.44694192 81.8065096,1.8248516 82.820221,0.811045157 C83.8339324,-0.202761289 85.4558706,-0.202761289 86.469582,0.811045157 Z"></path>
                                </g>
                                <g transform="translate(18.246805, 17.234710)" fill="#537CFD" id="Path">
                                    <path d="M4.8658147,83.0307479 C5.87952609,84.0445544 5.87952609,85.6666447 4.8658147,86.6804511 C3.8521033,87.6942576 2.23016507,87.6942576 1.21645367,86.6804511 C0.202742279,85.6666447 0.202742279,84.0445544 1.21645367,83.0307479 C2.23016507,82.0169415 3.8521033,82.0169415 4.8658147,83.0307479 Z"></path>
                                    <path d="M21.1865682,66.7084641 C22.2002796,67.7222706 22.2002796,69.3443609 21.1865682,70.3581673 C20.1728568,71.3719738 18.5509185,71.3719738 17.5372071,70.3581673 C16.5234957,69.3443609 16.5234957,67.7222706 17.5372071,66.7084641 C18.4495474,65.6946577 20.1728568,65.6946577 21.1865682,66.7084641 Z"></path>
                                    <path d="M37.4059505,50.487561 C38.4196619,51.5013674 38.4196619,53.1234578 37.4059505,54.1372642 C36.3922391,55.1510707 34.7703009,55.1510707 33.7565895,54.1372642 C32.7428781,53.1234578 32.7428781,51.5013674 33.7565895,50.487561 C34.7703009,49.4737546 36.3922391,49.4737546 37.4059505,50.487561 Z"></path>
                                    <path d="M53.7267039,34.1652772 C54.7404153,35.1790837 54.7404153,36.801174 53.7267039,37.8149804 C52.7129926,38.8287869 51.0910543,38.8287869 50.0773429,37.8149804 C49.0636315,36.801174 49.0636315,35.1790837 50.0773429,34.1652772 C51.0910543,33.1514708 52.7129926,33.1514708 53.7267039,34.1652772 Z"></path>
                                    <path d="M70.0474574,17.8429934 C71.0611688,18.8567999 71.0611688,20.4788902 70.0474574,21.4926967 C69.033746,22.5065031 67.4118078,22.5065031 66.3980964,21.4926967 C65.384385,20.4788902 65.384385,18.8567999 66.3980964,17.8429934 C67.3104366,16.829187 69.033746,16.829187 70.0474574,17.8429934 Z"></path>
                                    <path d="M86.2668397,1.62209031 C87.2805511,2.63589676 87.2805511,4.25798707 86.2668397,5.27179352 C85.2531283,6.28559996 83.6311901,6.28559996 82.6174787,5.27179352 C81.6037673,4.25798707 81.6037673,2.63589676 82.6174787,1.62209031 C83.6311901,0.608283867 85.2531283,0.608283867 86.2668397,1.62209031 Z"></path>
                                </g>
                                <g transform="translate(36.493610, 35.483226)" fill="#537CFD" id="Path">
                                    <path d="M4.66307242,82.8279866 C5.67678381,83.8417931 5.67678381,85.4638834 4.66307242,86.4776898 C3.64936102,87.4914963 2.02742279,87.4914963 1.0137114,86.4776898 C8.32667268e-16,85.4638834 8.32667268e-16,83.8417931 1.0137114,82.8279866 C1.92605165,81.8141802 3.64936102,81.8141802 4.66307242,82.8279866 Z"></path>
                                    <path d="M20.8824547,66.5057028 C21.8961661,67.5195093 21.8961661,69.1415996 20.8824547,70.155406 C19.8687433,71.1692125 18.2468051,71.1692125 17.2330937,70.155406 C16.2193823,69.1415996 16.2193823,67.5195093 17.2330937,66.5057028 C18.2468051,65.4918964 19.8687433,65.4918964 20.8824547,66.5057028 Z"></path>
                                    <path d="M37.2032082,50.1834191 C38.2169196,51.1972255 38.2169196,52.8193158 37.2032082,53.8331223 C36.1894968,54.8469287 34.5675586,54.8469287 33.5538472,53.8331223 C32.5401358,52.8193158 32.5401358,51.1972255 33.5538472,50.1834191 C34.5675586,49.2709933 36.1894968,49.2709933 37.2032082,50.1834191 Z"></path>
                                    <path d="M53.5239617,33.9625159 C54.5376731,34.9763224 54.5376731,36.5984127 53.5239617,37.6122191 C52.5102503,38.6260256 50.888312,38.6260256 49.8746006,37.6122191 C48.8608892,36.5984127 48.8608892,34.9763224 49.8746006,33.9625159 C50.7869409,32.9487095 52.5102503,32.9487095 53.5239617,33.9625159 Z"></path>
                                    <path d="M69.743344,17.6402322 C70.7570554,18.6540386 70.7570554,20.2761289 69.743344,21.2899354 C68.7296326,22.3037418 67.1076944,22.3037418 66.093983,21.2899354 C65.0802716,20.2761289 65.0802716,18.6540386 66.093983,17.6402322 C67.1076944,16.6264257 68.7296326,16.6264257 69.743344,17.6402322 Z"></path>
                                    <path d="M86.0640975,1.41932902 C87.0778088,2.43313547 87.0778088,4.05522578 86.0640975,5.06903223 C85.0503861,6.08283867 83.4284478,6.08283867 82.4147364,5.06903223 C81.401025,4.05522578 81.401025,2.43313547 82.4147364,1.41932902 C83.4284478,0.405522578 85.0503861,0.405522578 86.0640975,1.41932902 Z"></path>
                                </g>
                                <g transform="translate(54.625610, 53.731742)" fill="#537CFD" id="Path">
                                    <path d="M4.473764,82.6252253 C5.48747539,83.6390318 5.48747539,85.2611221 4.473764,86.2749285 C3.4600526,87.288735 1.83811437,87.288735 0.824402974,86.2749285 C-0.189308421,85.2611221 -0.189308421,83.6390318 0.824402974,82.6252253 C1.83811437,81.6114189 3.4600526,81.6114189 4.473764,82.6252253 Z"></path>
                                    <path d="M20.7945175,66.3029416 C21.8082289,67.316748 21.8082289,68.9388383 20.7945175,69.9526448 C19.7808061,70.9664512 18.1588678,70.9664512 17.1451564,69.9526448 C16.131445,68.9388383 16.131445,67.316748 17.1451564,66.3029416 C18.1588678,65.2891351 19.7808061,65.2891351 20.7945175,66.3029416 Z"></path>
                                    <path d="M37.1152709,49.9806578 C38.1289823,50.9944642 38.1289823,52.6165545 37.1152709,53.630361 C36.1015595,54.6441674 34.4796213,54.6441674 33.4659099,53.630361 C32.4521985,52.6165545 32.4521985,50.9944642 33.4659099,49.9806578 C34.4796213,48.9668513 36.1015595,48.9668513 37.1152709,49.9806578 Z"></path>
                                    <path d="M53.3346532,33.7597546 C54.3483646,34.7735611 54.3483646,36.3956514 53.3346532,37.4094578 C52.3209419,38.4232643 50.6990036,38.4232643 49.6852922,37.4094578 C48.6715808,36.3956514 48.6715808,34.7735611 49.6852922,33.7597546 C50.6990036,32.7459482 52.3209419,32.7459482 53.3346532,33.7597546 Z"></path>
                                    <path d="M69.6554067,17.4374709 C70.6691181,18.4512773 70.6691181,20.0733676 69.6554067,21.0871741 C68.6416953,22.1009805 67.0197571,22.1009805 66.0060457,21.0871741 C64.9923343,20.0733676 64.9923343,18.4512773 66.0060457,17.4374709 C67.0197571,16.4236644 68.6416953,16.4236644 69.6554067,17.4374709 Z"></path>
                                    <path d="M85.9761602,1.11518709 C86.9898716,2.12899354 86.9898716,3.75108385 85.9761602,4.7648903 C84.9624488,5.77869674 83.3405105,5.77869674 82.3267991,4.7648903 C81.3130878,3.75108385 81.3130878,2.12899354 82.3267991,1.11518709 C83.3405105,0.101380645 84.9624488,0.101380645 85.9761602,1.11518709 Z"></path>
                                </g>
                            </g>
                            <polygon id="Rectangle" fill="#537CFD" opacity="0.25" transform="translate(1770.500000, 179.500000) rotate(-45.000000) translate(-1770.500000, -179.500000) " points="1727.00397 136.003971 1814 136 1813.99603 222.996029 1727 223"></polygon>
                            <path d="M1657.97928,355.136246 C1658.78743,384.128648 1635.85616,408.272147 1606.86375,408.979278 C1577.87135,409.787429 1553.72785,386.856156 1553.02072,357.863754 C1552.21257,328.871352 1575.14384,304.727853 1604.13625,304.020722 C1633.12865,303.212571 1657.17113,326.143844 1657.97928,355.136246 Z" id="Path" fill="#537CFD" opacity="0.25"></path>
                            <path d="M1521.98534,92.4417379 C1522.58877,115.373042 1504.48607,134.381886 1481.55599,134.985342 C1458.62591,135.588797 1439.61808,117.485136 1439.01466,94.5538317 C1438.41123,71.6225276 1456.51393,52.6136834 1479.44401,52.010228 C1502.27352,51.5073485 1521.38192,69.6110097 1521.98534,92.4417379 Z" id="Path" fill="#537CFD" opacity="0.25"></path>
                            <path d="M1903.98084,663.979343 C1904.79186,695.71039 1879.7517,722.169825 1848.02066,722.980843 C1816.28961,723.79186 1789.83017,698.751704 1789.01916,667.020657 C1788.20814,635.28961 1813.2483,608.830175 1844.97934,608.019157 C1876.71039,607.20814 1903.16983,632.248296 1903.98084,663.979343 Z" id="Path" fill="#537CFD" opacity="0.25"></path>
                            <polygon id="Path" fill="#537CFD" opacity="0.25" points="1820 445 1828.81356 412.5 1837.62712 380 1861.26348 403.873457 1885 427.746914 1852.44992 436.373457"></polygon>
                            <g id="Group" opacity="0.5" stroke-width="1" fill="none" transform="translate(1537.000000, 192.000000)">
                                <path d="M19.33875,28.5501076 C15.1875,33.406941 11.84625,38.6685104 9.1125,44.1324479 L44.65125,8.61685417 C35.235,13.3725035 26.62875,20.0506493 19.33875,28.5501076 Z" id="Path" fill="#B6D2FC"></path>
                                <path d="M65.71125,1.43278819 L1.8225,65.2799097 C1.0125,69.5296389 0.50625,73.7793681 0.405,78.0290972 L78.46875,0.0162118056 C74.21625,0.218579861 69.96375,0.623315972 65.71125,1.43278819 Z" id="Path" fill="#B6D2FC"></path>
                                <path d="M91.7325,0.7245 L1.11375,91.2842049 C1.51875,94.5220938 2.2275,97.6587986 3.0375,100.795503 L101.25,2.64699653 C98.11125,1.73634028 94.9725,1.12923611 91.7325,0.7245 Z" id="Path" fill="#B6D2FC"></path>
                                <path d="M111.67875,6.08725347 L6.58125,111.116274 C7.695,113.747059 8.91,116.27666 10.22625,118.80626 L119.37375,9.72987847 C116.8425,8.41448611 114.31125,7.20027778 111.67875,6.08725347 Z" id="Path" fill="#B6D2FC"></path>
                                <path d="M132.73875,18.937625 C131.11875,17.6222326 129.49875,16.4080243 127.87875,15.193816 L15.49125,127.508087 C17.01,129.632951 18.73125,131.757816 20.55375,133.781497 L134.15625,20.2530174 C133.75125,19.7470972 133.245,19.3423611 132.73875,18.937625 Z" id="Path" fill="#B6D2FC"></path>
                                <path d="M29.05875,141.977403 C30.67875,143.292795 32.29875,144.608187 33.91875,145.721212 L146.30625,33.406941 C144.7875,31.2820764 143.06625,29.1572118 141.24375,27.1335312 L27.64125,140.66201 C28.04625,141.066747 28.5525,141.572667 29.05875,141.977403 Z" id="Path" fill="#B6D2FC"></path>
                                <path d="M50.11875,154.827774 L155.3175,49.6975694 C154.20375,47.0667847 152.98875,44.537184 151.6725,42.0075833 L42.525,151.083965 C44.955,152.500542 47.48625,153.71475 50.11875,154.827774 Z" id="Path" fill="#B6D2FC"></path>
                                <path d="M70.065,160.190528 L160.68375,69.6308229 C160.27875,66.392934 159.57,63.2562292 158.76,60.1195243 L60.5475,158.268031 C63.68625,159.077503 66.92625,159.684608 70.065,160.190528 Z" id="Path" fill="#B6D2FC"></path>
                                <path d="M96.08625,159.381056 L159.975,95.533934 C160.785,91.2842049 161.29125,87.0344757 161.3925,82.7847465 L83.32875,160.797632 C87.58125,160.696448 91.935,160.190528 96.08625,159.381056 Z" id="Path" fill="#B6D2FC"></path>
                                <path d="M142.45875,132.263736 C146.61,127.406903 149.95125,122.145333 152.685,116.681396 L117.14625,152.19699 C126.5625,147.542524 135.27,140.864378 142.45875,132.263736 Z" id="Path" fill="#B6D2FC"></path>
                            </g>
                            <g id="Group" opacity="0.5" stroke-width="1" fill="none" transform="translate(1781.000000, 317.000000)">
                                <path d="M109.091743,50.8623853 C108.688073,46.5229358 107.880734,42.3853211 106.568807,38.4495413 L106.46789,72.559633 C108.688073,65.7981651 109.697248,58.4311927 109.091743,50.8623853 Z" id="Path" fill="#B6D2FC"></path>
                                <path d="M99.706422,86.0825688 L99.9082569,24.8256881 C98.293578,22.4036697 96.4770642,20.0825688 94.4587156,17.9633028 L94.2568807,92.8440367 C96.2752294,90.8256881 98.0917431,88.5045872 99.706422,86.0825688 Z" id="Path" fill="#B6D2FC"></path>
                                <path d="M82.3486239,8.27522936 L82.0458716,102.53211 C83.9633028,101.422018 85.7798165,100.211009 87.4954128,98.8990826 L87.7981651,12.0091743 C86.0825688,10.5963303 84.266055,9.3853211 82.3486239,8.27522936 Z" id="Path" fill="#B6D2FC"></path>
                                <path d="M70.2385321,3.02752294 L69.9357798,107.779817 C71.853211,107.275229 73.6697248,106.568807 75.3853211,105.862385 L75.6880734,4.94495413 C73.9724771,4.23853211 72.1559633,3.53211009 70.2385321,3.02752294 Z" id="Path" fill="#B6D2FC"></path>
                                <path d="M58.1284404,0.80733945 L57.8256881,109.798165 C58.2293578,109.798165 58.733945,109.798165 59.1376147,109.697248 C60.5504587,109.59633 61.9633028,109.394495 63.2752294,109.192661 L63.5779817,1.41284404 C61.7614679,1.11009174 59.9449541,0.908256881 58.1284404,0.80733945 Z" id="Path" fill="#B6D2FC"></path>
                                <path d="M50.1559633,0.908256881 C48.7431193,1.00917431 47.3302752,1.21100917 46.0183486,1.41284404 L45.7155963,109.192661 C47.5321101,109.495413 49.3486239,109.697248 51.1651376,109.798165 L51.4678899,0.80733945 C50.9633028,0.80733945 50.559633,0.80733945 50.1559633,0.908256881 Z" id="Path" fill="#B6D2FC"></path>
                                <path d="M33.8073394,4.8440367 L33.5045872,105.761468 C35.3211009,106.46789 37.1376147,107.174312 38.9541284,107.678899 L39.2568807,2.9266055 C37.440367,3.43119266 35.6238532,4.03669725 33.8073394,4.8440367 Z" id="Path" fill="#B6D2FC"></path>
                                <path d="M21.6972477,11.8073394 L21.3944954,98.6972477 C23.1100917,100.009174 24.9266055,101.220183 26.8440367,102.330275 L27.146789,8.0733945 C25.2293578,9.18348624 23.412844,10.3944954 21.6972477,11.8073394 Z" id="Path" fill="#B6D2FC"></path>
                                <path d="M9.48623853,24.5229358 L9.28440367,85.7798165 C10.8990826,88.2018349 12.7155963,90.5229358 14.733945,92.6422018 L14.9357798,17.7614679 C13.0183486,19.8807339 11.1009174,22.1009174 9.48623853,24.5229358 Z" id="Path" fill="#B6D2FC"></path>
                                <path d="M0.201834862,59.8440367 C0.605504587,64.1834862 1.41284404,68.3211009 2.72477064,72.2568807 L2.82568807,38.146789 C0.504587156,44.9082569 -0.403669725,52.1743119 0.201834862,59.8440367 Z" id="Path" fill="#B6D2FC"></path>
                            </g>
                            <polygon id="Path" fill="#FFFFFF" points="1878 147.550787 1908.55041 129.775393 1939 112 1939 147.550787 1939 183 1908.55041 165.224607"></polygon>
                            <polygon id="Path" fill="#537CFD" opacity="0.25" points="1623 149.549575 1638.5 140.725212 1654 132 1654 149.549575 1654 167 1638.5 158.274788"></polygon>
                            <polygon id="Path" fill="#537CFD" opacity="0.25" points="1853 528.450425 1868.44918 519.725212 1884 511 1884 528.450425 1884 546 1868.44918 537.175637"></polygon>
                            <polygon id="Path" fill="#537CFD" opacity="0.25" points="1392 273.549575 1407.5 264.725212 1423 256 1423 273.549575 1423 291 1407.5 282.274788"></polygon>
                            <polygon id="Path" fill="#FFFFFF" points="1660.45042 432 1669.27479 447.44918 1678 463 1660.45042 463 1643 463 1651.72521 447.44918"></polygon>
                            <path d="M1583.99835,442.261393 C1584.09478,447.563698 1579.94829,451.901946 1574.74107,451.998352 C1569.43743,452.094758 1565.09808,447.94932 1565.00165,442.743421 C1564.90522,437.441117 1569.05171,433.102868 1574.25893,433.006462 C1579.46614,432.813651 1583.90192,436.959089 1583.99835,442.261393 Z" id="Path" fill="#FFFFFF"></path>
                        </g>
                    </g>
                </g>
            </g>
        </g>
    </g>
</svg>